Library\Bee\artifacts\mvdfrm\Unity.EditorCoroutines.Editor.ref.dll_34ED10A34098B2DB.mvfrm
Library\Bee\artifacts\mvdfrm\Unity.Performance.Profile-Analyzer.Editor.ref.dll_65A192712782EB2B.mvfrm
Library\Bee\artifacts\mvdfrm\Unity.PlasticSCM.Editor.ref.dll_257AEB342BE77856.mvfrm
Library\Bee\artifacts\mvdfrm\Unity.Polybrush.Editor.ref.dll_7285B0818FACF22B.mvfrm
Library\Bee\artifacts\mvdfrm\Unity.Polybrush.ref.dll_32C84A57EC5635E6.mvfrm
Library\Bee\artifacts\mvdfrm\Unity.Postprocessing.Editor.ref.dll_1C9CD17610FFA3F0.mvfrm
Library\Bee\artifacts\mvdfrm\Unity.Postprocessing.Runtime.ref.dll_3152B6A9836FBF3B.mvfrm
Library\Bee\artifacts\mvdfrm\Unity.ProBuilder.AddOns.Editor.ref.dll_F524F8CE15EFFDA6.mvfrm
Library\Bee\artifacts\mvdfrm\Unity.ProBuilder.AssetIdRemapUtility.ref.dll_A186D6143F9C679C.mvfrm
Library\Bee\artifacts\mvdfrm\Unity.ProBuilder.Editor.ref.dll_E3AF217646286A75.mvfrm
Library\Bee\artifacts\mvdfrm\Unity.ProBuilder.ref.dll_E7A4225E7DFD40FC.mvfrm
Library\Bee\artifacts\mvdfrm\Unity.Rider.Editor.ref.dll_9B5591808ABA37AF.mvfrm
Library\Bee\artifacts\mvdfrm\Unity.TestTools.CodeCoverage.Editor.OpenCover.Model.ref.dll_D3B9364D6FB03093.mvfrm
Library\Bee\artifacts\mvdfrm\Unity.TestTools.CodeCoverage.Editor.OpenCover.Mono.Reflection.ref.dll_E668CD773429A040.mvfrm
Library\Bee\artifacts\mvdfrm\Unity.TestTools.CodeCoverage.Editor.ref.dll_F09CF4826CE11CD9.mvfrm
Library\Bee\artifacts\mvdfrm\Unity.TextMeshPro.Editor.ref.dll_159E061D77A10B86.mvfrm
Library\Bee\artifacts\mvdfrm\Unity.TextMeshPro.ref.dll_84A4293DBDD182DB.mvfrm
Library\Bee\artifacts\mvdfrm\Unity.Timeline.Editor.ref.dll_0D3D3C0B73557612.mvfrm
Library\Bee\artifacts\mvdfrm\Unity.Timeline.ref.dll_621CDDF9C514DF8F.mvfrm
Library\Bee\artifacts\mvdfrm\Unity.VSCode.Editor.ref.dll_3628369EB48E4C19.mvfrm
Library\Bee\artifacts\mvdfrm\Unity.VisualScripting.Core.Editor.ref.dll_EDC8690F57C5BDFD.mvfrm
Library\Bee\artifacts\mvdfrm\Unity.VisualScripting.Core.ref.dll_D75DF4EA1AFE54F4.mvfrm
Library\Bee\artifacts\mvdfrm\Unity.VisualScripting.Flow.Editor.ref.dll_6AF951BE66A4493E.mvfrm
Library\Bee\artifacts\mvdfrm\Unity.VisualScripting.Flow.ref.dll_1E6ED5409D07C9A3.mvfrm
Library\Bee\artifacts\mvdfrm\Unity.VisualScripting.SettingsProvider.Editor.ref.dll_A1A44354E0B583A8.mvfrm
Library\Bee\artifacts\mvdfrm\Unity.VisualScripting.Shared.Editor.ref.dll_9669F6EBFF6DFFB7.mvfrm
Library\Bee\artifacts\mvdfrm\Unity.VisualScripting.State.Editor.ref.dll_E03858E727F23F6F.mvfrm
Library\Bee\artifacts\mvdfrm\Unity.VisualScripting.State.ref.dll_D91762B7076BE462.mvfrm
Library\Bee\artifacts\mvdfrm\Unity.VisualStudio.Editor.ref.dll_3A975DBA53ABA4AD.mvfrm
Library\Bee\artifacts\mvdfrm\UnityEditor.TestRunner.ref.dll_193EC4CE382CBFB3.mvfrm
Library\Bee\artifacts\mvdfrm\UnityEditor.UI.ref.dll_4C98D3F7040CD4F5.mvfrm
Library\Bee\artifacts\mvdfrm\UnityEngine.TestRunner.ref.dll_E55D0F7C63F01D9E.mvfrm
Library\Bee\artifacts\mvdfrm\UnityEngine.UI.ref.dll_08FEAA520A2EFD60.mvfrm
Library\Bee\artifacts\mvdfrm\UnityEditor.Graphs.dll_E50A23FA50E76AE5.mvfrm
Library\Bee\artifacts\mvdfrm\UnityEditor.CoreModule.dll_A0F3051222C453B3.mvfrm
Library\Bee\artifacts\mvdfrm\UnityEditor.DeviceSimulatorModule.dll_C9088F5983650D7E.mvfrm
Library\Bee\artifacts\mvdfrm\UnityEditor.DiagnosticsModule.dll_60DA79B99490B04C.mvfrm
Library\Bee\artifacts\mvdfrm\UnityEditor.dll_D9F0327AB4F9E772.mvfrm
Library\Bee\artifacts\mvdfrm\UnityEditor.EditorToolbarModule.dll_9D5079EFB7E5778E.mvfrm
Library\Bee\artifacts\mvdfrm\UnityEditor.GraphViewModule.dll_B3B41B465D96C2A3.mvfrm
Library\Bee\artifacts\mvdfrm\UnityEditor.PresetsUIModule.dll_6F1A54285FEF1AA8.mvfrm
Library\Bee\artifacts\mvdfrm\UnityEditor.QuickSearchModule.dll_EBE9FAC6ED67ACA5.mvfrm
Library\Bee\artifacts\mvdfrm\UnityEditor.SceneTemplateModule.dll_C0EFEAADB6D221C6.mvfrm
Library\Bee\artifacts\mvdfrm\UnityEditor.SceneViewModule.dll_F263FE4E52B98FB1.mvfrm
Library\Bee\artifacts\mvdfrm\UnityEditor.TextCoreFontEngineModule.dll_A2838764B684BFD1.mvfrm
Library\Bee\artifacts\mvdfrm\UnityEditor.TextCoreTextEngineModule.dll_EA6BBDD6460878EF.mvfrm
Library\Bee\artifacts\mvdfrm\UnityEditor.UIBuilderModule.dll_083CC862D04F3BD7.mvfrm
Library\Bee\artifacts\mvdfrm\UnityEditor.UIElementsModule.dll_B137D434800F540F.mvfrm
Library\Bee\artifacts\mvdfrm\UnityEditor.UIElementsSamplesModule.dll_BC2DE994EDAEE34E.mvfrm
Library\Bee\artifacts\mvdfrm\UnityEditor.UnityConnectModule.dll_DA6569D8F0B7DBE9.mvfrm
Library\Bee\artifacts\mvdfrm\UnityEngine.AccessibilityModule.dll_F3955644B7484963.mvfrm
Library\Bee\artifacts\mvdfrm\UnityEngine.AIModule.dll_DF09F555BD8A29A7.mvfrm
Library\Bee\artifacts\mvdfrm\UnityEngine.AndroidJNIModule.dll_2F80BD07C92EC2E5.mvfrm
Library\Bee\artifacts\mvdfrm\UnityEngine.AnimationModule.dll_8239976F37F39749.mvfrm
Library\Bee\artifacts\mvdfrm\UnityEngine.ARModule.dll_987CBA591AA78870.mvfrm
Library\Bee\artifacts\mvdfrm\UnityEngine.AssetBundleModule.dll_2FD32DB84FCE6197.mvfrm
Library\Bee\artifacts\mvdfrm\UnityEngine.AudioModule.dll_AB7069D6E86C7DFB.mvfrm
Library\Bee\artifacts\mvdfrm\UnityEngine.ClothModule.dll_1258C6D1C2895CDF.mvfrm
Library\Bee\artifacts\mvdfrm\UnityEngine.ClusterInputModule.dll_5A01DEEEA23FAEAF.mvfrm
Library\Bee\artifacts\mvdfrm\UnityEngine.ClusterRendererModule.dll_CEB551CAF3201B02.mvfrm
Library\Bee\artifacts\mvdfrm\UnityEngine.ContentLoadModule.dll_C8E986F91E510984.mvfrm
Library\Bee\artifacts\mvdfrm\UnityEngine.CoreModule.dll_C413D864CAC9BEDE.mvfrm
Library\Bee\artifacts\mvdfrm\UnityEngine.CrashReportingModule.dll_2DFDDE27EDA54936.mvfrm
Library\Bee\artifacts\mvdfrm\UnityEngine.DirectorModule.dll_900E7D847A99D47B.mvfrm
Library\Bee\artifacts\mvdfrm\UnityEngine.dll_0C947953136D7457.mvfrm
Library\Bee\artifacts\mvdfrm\UnityEngine.DSPGraphModule.dll_955FDEEDECFAA59C.mvfrm
Library\Bee\artifacts\mvdfrm\UnityEngine.GameCenterModule.dll_59CE07228F6FB3D6.mvfrm
Library\Bee\artifacts\mvdfrm\UnityEngine.GIModule.dll_77463E63593911C1.mvfrm
Library\Bee\artifacts\mvdfrm\UnityEngine.GridModule.dll_A184F452E31E54D5.mvfrm
Library\Bee\artifacts\mvdfrm\UnityEngine.HotReloadModule.dll_038255751326B2CB.mvfrm
Library\Bee\artifacts\mvdfrm\UnityEngine.ImageConversionModule.dll_3AA74F7B7544D2F6.mvfrm
Library\Bee\artifacts\mvdfrm\UnityEngine.IMGUIModule.dll_E3D0093DAE9E11DC.mvfrm
Library\Bee\artifacts\mvdfrm\UnityEngine.InputLegacyModule.dll_C11848D6E7C01788.mvfrm
Library\Bee\artifacts\mvdfrm\UnityEngine.InputModule.dll_11E631875EA4A29F.mvfrm
Library\Bee\artifacts\mvdfrm\UnityEngine.JSONSerializeModule.dll_53ACDF80B683A9ED.mvfrm
Library\Bee\artifacts\mvdfrm\UnityEngine.LocalizationModule.dll_984EA94139BBA1A8.mvfrm
Library\Bee\artifacts\mvdfrm\UnityEngine.NVIDIAModule.dll_7835AB0FFD749B0A.mvfrm
Library\Bee\artifacts\mvdfrm\UnityEngine.ParticleSystemModule.dll_811027745BB6D4C4.mvfrm
Library\Bee\artifacts\mvdfrm\UnityEngine.PerformanceReportingModule.dll_79A9528704BBB19D.mvfrm
Library\Bee\artifacts\mvdfrm\UnityEngine.Physics2DModule.dll_CEDF875FD8F08EDE.mvfrm
Library\Bee\artifacts\mvdfrm\UnityEngine.PhysicsModule.dll_A6D6F9A7BC70862C.mvfrm
Library\Bee\artifacts\mvdfrm\UnityEngine.ProfilerModule.dll_C254B6BB13F35B88.mvfrm
Library\Bee\artifacts\mvdfrm\UnityEngine.PropertiesModule.dll_87094661025B1812.mvfrm
Library\Bee\artifacts\mvdfrm\UnityEngine.RuntimeInitializeOnLoadManagerInitializerModule.dll_60AD5D282BF8BBA7.mvfrm
Library\Bee\artifacts\mvdfrm\UnityEngine.ScreenCaptureModule.dll_6D948D05CAEFD64F.mvfrm
Library\Bee\artifacts\mvdfrm\UnityEngine.SharedInternalsModule.dll_BEB88E50EC72CE46.mvfrm
Library\Bee\artifacts\mvdfrm\UnityEngine.SpriteMaskModule.dll_42FA79B2B0DF4950.mvfrm
Library\Bee\artifacts\mvdfrm\UnityEngine.SpriteShapeModule.dll_49345B13057099A1.mvfrm
Library\Bee\artifacts\mvdfrm\UnityEngine.StreamingModule.dll_36CE84BF877B4E87.mvfrm
Library\Bee\artifacts\mvdfrm\UnityEngine.SubstanceModule.dll_13799908D2CE4C95.mvfrm
Library\Bee\artifacts\mvdfrm\UnityEngine.SubsystemsModule.dll_ADA7E0147F273163.mvfrm
Library\Bee\artifacts\mvdfrm\UnityEngine.TerrainModule.dll_C11D7516922ECF1A.mvfrm
Library\Bee\artifacts\mvdfrm\UnityEngine.TerrainPhysicsModule.dll_818AD04774F9CF51.mvfrm
Library\Bee\artifacts\mvdfrm\UnityEngine.TextCoreFontEngineModule.dll_20E302B7C9827E9C.mvfrm
Library\Bee\artifacts\mvdfrm\UnityEngine.TextCoreTextEngineModule.dll_68CB3929590637BA.mvfrm
Library\Bee\artifacts\mvdfrm\UnityEngine.TextRenderingModule.dll_96D3FF1082275644.mvfrm
Library\Bee\artifacts\mvdfrm\UnityEngine.TilemapModule.dll_6019DC97A9EBB023.mvfrm
Library\Bee\artifacts\mvdfrm\UnityEngine.TLSModule.dll_4503856ACF4B6C00.mvfrm
Library\Bee\artifacts\mvdfrm\UnityEngine.UIElementsModule.dll_B1E6417C82536D5A.mvfrm
Library\Bee\artifacts\mvdfrm\UnityEngine.UIModule.dll_DA7D938319D12F53.mvfrm
Library\Bee\artifacts\mvdfrm\UnityEngine.UmbraModule.dll_264515EF7593296E.mvfrm
Library\Bee\artifacts\mvdfrm\UnityEngine.UnityAnalyticsCommonModule.dll_14E80FCB1EA44FFB.mvfrm
Library\Bee\artifacts\mvdfrm\UnityEngine.UnityAnalyticsModule.dll_A0AF983E07DE26C0.mvfrm
Library\Bee\artifacts\mvdfrm\UnityEngine.UnityConnectModule.dll_C7C4EDE7EB3FDC94.mvfrm
Library\Bee\artifacts\mvdfrm\UnityEngine.UnityCurlModule.dll_B55638A0A8078936.mvfrm
Library\Bee\artifacts\mvdfrm\UnityEngine.UnityTestProtocolModule.dll_77F09F8747AA38A4.mvfrm
Library\Bee\artifacts\mvdfrm\UnityEngine.UnityWebRequestAssetBundleModule.dll_02DC66C4B1E75991.mvfrm
Library\Bee\artifacts\mvdfrm\UnityEngine.UnityWebRequestAudioModule.dll_F1A5A6658B267C35.mvfrm
Library\Bee\artifacts\mvdfrm\UnityEngine.UnityWebRequestModule.dll_4C46572580396D75.mvfrm
Library\Bee\artifacts\mvdfrm\UnityEngine.UnityWebRequestTextureModule.dll_B03D4883AE96DAAA.mvfrm
Library\Bee\artifacts\mvdfrm\UnityEngine.UnityWebRequestWWWModule.dll_338D7E8548C5F426.mvfrm
Library\Bee\artifacts\mvdfrm\UnityEngine.VehiclesModule.dll_07D17703F4C3A416.mvfrm
Library\Bee\artifacts\mvdfrm\UnityEngine.VFXModule.dll_C5E21DD9A5B8D56D.mvfrm
Library\Bee\artifacts\mvdfrm\UnityEngine.VideoModule.dll_D079EE41AAFE99A0.mvfrm
Library\Bee\artifacts\mvdfrm\UnityEngine.VirtualTexturingModule.dll_A1BEBCCAD3C97FFC.mvfrm
Library\Bee\artifacts\mvdfrm\UnityEngine.VRModule.dll_2D4FBA08BB8BB4CB.mvfrm
Library\Bee\artifacts\mvdfrm\UnityEngine.WindModule.dll_3A62B38D5C003D47.mvfrm
Library\Bee\artifacts\mvdfrm\UnityEngine.XRModule.dll_600E7D0D44C60229.mvfrm
Library\Bee\artifacts\mvdfrm\UnityEditor.WebGL.Extensions.dll_84E1EFED2ADE85AD.mvfrm
Library\Bee\artifacts\mvdfrm\UnityEditor.WindowsStandalone.Extensions.dll_B9EB3D9ED2B1F41D.mvfrm
Library\Bee\artifacts\mvdfrm\Unity.Plastic.Antlr3.Runtime.dll_06567403B026473B.mvfrm
Library\Bee\artifacts\mvdfrm\Unity.Plastic.Newtonsoft.Json.dll_2AAE32905E8C08CA.mvfrm
Library\Bee\artifacts\mvdfrm\Unity.VisualScripting.IonicZip.dll_AFC4A1775743CCD8.mvfrm
Library\Bee\artifacts\mvdfrm\Unity.VisualScripting.YamlDotNet.dll_295D7F5050B34F24.mvfrm
Library\Bee\artifacts\mvdfrm\Unity.VisualScripting.TextureAssets.dll_C07BA8A41180AD1C.mvfrm
Library\Bee\artifacts\mvdfrm\Unity.VisualScripting.Antlr3.Runtime.dll_DACAA631817C5F43.mvfrm